 -- 18:03:13.91 
 -- mutant_CCN_9 
 -- mutant_CCN_8 
 -- mutant_CCN_7 
 -- mutant_CCN_6 
 -- mutant_CCN_5 
 -- mutant_CCN_4 
 -- mutant_CCN_3 
 -- mutant_CCN_2 
 -- mutant_CCN_1 
18:03:14.46 
